<svg width="349" height="425" viewBox="0 0 349 425" fill="none" xmlns="http://www.w3.org/2000/svg">
<path d="M259.733 154.815C300.734 206.637 328.204 261.157 339.488 307.395C350.782 353.679 345.819 391.462 322.279 410.086C298.74 428.71 260.828 424.849 218.384 403.211C175.982 381.594 129.243 342.318 88.2425 290.496C47.2405 238.673 19.7705 184.153 8.48648 137.915C-2.80752 91.6309 2.15548 53.8479 25.6955 35.2239C49.2355 16.5998 87.1465 20.4611 129.591 42.0999C171.993 63.7169 218.731 102.992 259.733 154.815Z" stroke="#6F3689"/>
<path d="M74.3484 46.9649L102.685 29.7107L86.7724 0.600067L104.026 28.9366L133.136 13.0235L104.8 30.2773L120.713 59.3879L103.459 31.0514L74.3484 46.9649Z" fill="#FDC949"/>
<path d="M86.5435 25.3854L103.195 29.0458L108.351 12.7943L104.691 29.4466L120.942 34.6029L104.29 30.9422L99.1345 47.1939L102.794 30.5415L86.5435 25.3854Z" fill="#FDC949"/>
</svg>
